# type (j=job, t=task, s=sub-task) ; time to wait ; computation duration (flops) ; task-size (bytes) ; additional required data (bytes) ; result size (bytes) [; # recursion, default = 0]
j;0
t;0.00;4e10;500;0;20;0
t;0.00;4e10;500;0;20;0
t;0.00;4e10;500;0;20;0
t;0.00;4e10;500;0;20;0
t;0.00;4e10;500;0;20;0
t;0.00;4e10;500;0;20;0
t;0.00;4e10;500;0;20;0
t;0.00;4e10;500;0;20;0
t;0.00;4e10;500;0;20;0
t;0.00;4e10;500;0;20;0
t;0.00;4e10;500;0;20;0
t;0.00;4e10;500;0;20;0
t;0.00;4e10;500;0;20;0
t;0.00;4e10;500;0;20;0
t;0.00;4e10;500;0;20;0
t;0.00;4e10;500;0;20;0
t;0.00;4e10;500;0;20;0
t;0.00;4e10;500;0;20;0
t;0.00;4e10;500;0;20;0
t;0.00;4e10;500;0;20;0
t;0.00;4e10;500;0;20;0
t;0.00;4e10;500;0;20;0
t;0.00;4e10;500;0;20;0
t;0.00;4e10;500;0;20;0
t;0.00;4e10;500;0;20;0
t;0.00;4e10;500;0;20;0
t;0.00;4e10;500;0;20;0
t;0.00;4e10;500;0;20;0
t;0.00;4e10;500;0;20;0
t;0.00;4e10;500;0;20;0
t;0.00;4e10;500;0;20;0
t;0.00;4e10;500;0;20;0
t;0.00;4e10;500;0;20;0
t;0.00;4e10;500;0;20;0
t;0.00;4e10;500;0;20;0
t;0.00;4e10;500;0;20;0
t;0.00;4e10;500;0;20;0
t;0.00;4e10;500;0;20;0
t;0.00;4e10;500;0;20;0
t;0.00;4e10;500;0;20;0
t;0.00;4e10;500;0;20;0
t;0.00;4e10;500;0;20;0
t;0.00;4e10;500;0;20;0
t;0.00;4e10;500;0;20;0
t;0.00;4e10;500;0;20;0
t;0.00;4e10;500;0;20;0
t;0.00;4e10;500;0;20;0
t;0.00;4e10;500;0;20;0
t;0.00;4e10;500;0;20;0
t;0.00;4e10;500;0;20;0