# comment
# type (j=job, t=task, s=sub-task) ; time to wait ; computation duration (flops) ; task-size (bytes) ; additional required data (bytes) ; result size (bytes) [; # recursion, default = 0]
j;0.0
t;0.00;1e13;1e5;0;1e3;0
t;0.00;1e13;1e5;0;1e3;0
t;0.00;1e13;1e5;0;1e3;0
t;0.00;1e13;1e5;0;1e3;0
t;0.00;1e13;1e5;0;1e3;0
t;0.00;1e13;1e5;0;1e3;0
t;0.00;1e13;1e5;0;1e3;0
t;0.00;1e13;1e5;0;1e3;0
t;0.00;1e13;1e5;0;1e3;0
t;0.00;1e13;1e5;0;1e3;0
t;0.00;1e13;1e5;0;1e3;0
t;0.00;1e13;1e5;0;1e3;0
t;0.00;1e13;1e5;0;1e3;0
t;0.00;1e13;1e5;0;1e3;0
t;0.00;1e13;1e5;0;1e3;0
t;0.00;1e13;1e5;0;1e3;0
t;0.00;1e13;1e5;0;1e3;0
t;0.00;1e13;1e5;0;1e3;0
t;0.00;1e13;1e5;0;1e3;0
t;0.00;1e13;1e5;0;1e3;0
t;0.00;1e13;1e5;0;1e3;0
t;0.00;1e13;1e5;0;1e3;0
t;0.00;1e13;1e5;0;1e3;0
t;0.00;1e13;1e5;0;1e3;0
t;0.00;1e13;1e5;0;1e3;0
t;0.00;1e13;1e5;0;1e3;0
t;0.00;1e13;1e5;0;1e3;0
t;0.00;1e13;1e5;0;1e3;0
t;0.00;1e13;1e5;0;1e3;0
t;0.00;1e13;1e5;0;1e3;0
t;0.00;1e13;1e5;0;1e3;0
t;0.00;1e13;1e5;0;1e3;0
t;0.00;1e13;1e5;0;1e3;0
t;0.00;1e13;1e5;0;1e3;0
t;0.00;1e13;1e5;0;1e3;0
t;0.00;1e13;1e5;0;1e3;0
t;0.00;1e13;1e5;0;1e3;0
t;0.00;1e13;1e5;0;1e3;0
t;0.00;1e13;1e5;0;1e3;0
t;0.00;1e13;1e5;0;1e3;0
t;0.00;1e13;1e5;0;1e3;0
t;0.00;1e13;1e5;0;1e3;0
t;0.00;1e13;1e5;0;1e3;0
t;0.00;1e13;1e5;0;1e3;0
t;0.00;1e13;1e5;0;1e3;0
t;0.00;1e13;1e5;0;1e3;0
t;0.00;1e13;1e5;0;1e3;0
t;0.00;1e13;1e5;0;1e3;0
t;0.00;1e13;1e5;0;1e3;0
t;0.00;1e13;1e5;0;1e3;0