# comment
# type (j=job, t=task, s=sub-task) ; time to wait ; computation duration (flops) ; task-size (bytes) ; additional required data (bytes) ; result size (bytes) [; # recursion, default = 0]
j;0.0
t;0.00;7006.13;307.55;2051.74;3054.71;0
t;0.00;786.17;326.97;2080.97;3124.42;0
t;0.00;903.66;340.35;2000.31;3184.29;0
t;0.00;972.33;305.50;2093.56;3049.00;0
t;0.00;836.64;342.90;2033.20;3128.00;0
t;0.00;1026.71;321.40;2064.72;3160.56;0
t;0.00;1082.82;338.19;2082.80;3008.52;0
t;0.00;867.04;318.58;2084.03;3195.57;0
t;0.00;938.81;323.81;2017.00;3016.61;0
t;0.00;1048.22;344.02;2027.18;3048.30;0
t;0.00;1036.85;312.85;2013.47;3186.80;0
t;0.00;1012.82;302.02;2060.15;3084.61;0
t;0.00;740.12;311.06;2022.28;3082.47;0
t;0.00;898.66;342.28;2075.04;3055.91;0
t;0.00;777.41;305.56;2033.82;3059.17;0
t;0.00;1022.69;315.76;2095.54;3038.86;0
t;0.00;962.45;317.71;2054.20;3071.33;0
t;0.00;715.40;320.54;2066.20;3002.27;0
t;0.00;813.98;335.88;2001.13;3045.03;0
t;0.00;875.79;302.08;2010.99;3015.01;0
t;0.00;942.36;345.13;2083.87;3056.95;0
t;0.00;930.62;326.17;2061.10;3044.57;0
t;0.00;747.12;308.43;2046.16;3026.95;0
t;0.00;977.25;327.91;2046.43;3091.66;0
t;0.00;757.76;315.75;2091.06;3029.18;0
t;0.00;1088.66;305.63;2015.89;3070.56;0
t;0.00;849.51;314.25;2046.53;3140.44;0
t;0.00;1039.56;319.95;2043.98;3050.23;0
t;0.00;744.67;304.43;2037.08;3039.34;0
t;0.00;1075.03;330.91;2055.40;3016.58;0
t;0.00;1024.82;327.20;2085.97;3084.76;0
t;0.00;850.20;339.99;2082.93;3044.91;0
t;0.00;1023.60;329.31;2067.57;3073.85;0
t;0.00;720.73;302.86;2081.43;3037.61;0
t;0.00;708.82;301.22;2023.23;3122.90;0
t;0.00;923.67;348.25;2048.50;3182.95;0
t;0.00;718.19;335.89;2037.45;3024.08;0
t;0.00;879.08;314.37;2092.15;3159.39;0
t;0.00;788.96;337.67;2033.70;3197.35;0
t;0.00;921.45;339.89;2057.88;3193.96;0
t;0.00;960.39;304.03;2093.89;3130.44;0
t;0.00;837.65;334.54;2009.60;3136.21;0
t;0.00;703.47;308.23;2064.00;3040.01;0
t;0.00;978.50;306.29;2080.49;3104.26;0
t;0.00;912.39;311.15;2045.54;3115.51;0
t;0.00;920.58;349.38;2033.21;3191.45;0
t;0.00;982.01;343.22;2024.61;3052.66;0
t;0.00;1096.92;332.05;2001.47;3003.38;0
t;0.00;730.57;324.28;2006.82;3090.82;0
t;0.00;980.27;337.71;2072.09;3028.95;0
t;0.00;755.00;305.46;2043.07;3047.70;0
t;0.00;1033.64;334.65;2001.05;3099.93;0
t;0.00;838.45;349.48;2009.39;3068.17;0
t;0.00;930.22;330.24;2021.33;3148.31;0
t;0.00;744.25;328.84;2081.84;3002.75;0
t;0.00;880.65;326.74;2074.47;3121.76;0
t;0.00;711.81;338.26;2068.11;3067.37;0
t;0.00;919.85;306.57;2068.26;3179.06;0
t;0.00;1013.62;319.10;2050.69;3145.71;0
t;0.00;953.87;326.25;2051.02;3082.63;0
t;0.00;809.70;311.87;2027.03;3063.01;0
t;0.00;916.78;302.12;2072.18;3151.52;0
t;0.00;773.41;312.99;2087.18;3167.11;0
t;0.00;991.54;324.01;2094.41;3079.97;0
t;0.00;769.81;335.82;2070.24;3022.09;0
t;0.00;1092.30;323.16;2002.42;3054.40;0
t;0.00;969.55;314.09;2052.74;3083.07;0
t;0.00;820.73;339.02;2073.93;3123.27;0
t;0.00;739.06;328.68;2092.52;3159.02;0
t;0.00;784.26;341.36;2038.48;3080.78;0
t;0.00;1028.77;347.67;2074.67;3143.90;0
t;0.00;963.38;341.69;2085.21;3141.72;0
t;0.00;801.64;310.99;2090.82;3073.76;0
t;0.00;849.86;347.63;2094.90;3150.81;0
t;0.00;859.54;329.63;2020.33;3112.16;0
t;0.00;789.38;303.34;2005.08;3157.79;0
t;0.00;923.29;307.99;2067.59;3182.20;0
t;0.00;964.31;338.91;2092.25;3116.10;0
t;0.00;919.18;311.90;2000.68;3198.05;0
t;0.00;1029.52;305.95;2077.05;3017.05;0
t;0.00;736.67;323.63;2065.48;3124.29;0
t;0.00;944.27;319.98;2032.24;3020.98;0
t;0.00;848.02;307.60;2083.90;3033.61;0
t;0.00;1064.63;320.69;2016.03;3165.52;0
t;0.00;886.50;314.41;2064.51;3016.83;0
t;0.00;1085.01;338.97;2074.26;3119.05;0
t;0.00;847.47;308.16;2040.98;3150.22;0
t;0.00;919.00;331.66;2074.35;3196.96;0
t;0.00;830.99;339.77;2030.50;3163.56;0
t;0.00;1034.61;307.28;2047.21;3150.33;0
t;0.00;951.73;323.56;2014.83;3170.31;0
t;0.00;896.42;346.20;2040.32;3041.29;0
t;0.00;1010.61;308.65;2070.97;3148.72;0
t;0.00;856.49;311.88;2053.88;3181.42;0
t;0.00;729.63;307.12;2089.58;3076.59;0
t;0.00;878.87;317.22;2017.13;3121.81;0
t;0.00;1052.67;328.41;2021.79;3113.03;0
t;0.00;1053.70;314.56;2046.64;3033.41;0
t;0.00;778.54;343.45;2063.74;3135.29;0
t;0.00;914.58;308.76;2008.77;3015.65;0
t;0.00;1047.69;346.24;2097.10;3075.88;0
t;0.00;776.42;343.69;2026.62;3184.01;0
t;0.00;1065.10;341.16;2087.26;3146.89;0
t;0.00;887.75;314.95;2083.70;3056.13;0
t;0.00;828.95;323.57;2004.40;3149.14;0
t;0.00;970.36;312.77;2071.82;3172.68;0
t;0.00;865.88;339.10;2088.92;3116.28;0
t;0.00;703.88;347.35;2090.88;3015.94;0
t;0.00;889.55;300.03;2076.43;3049.17;0
t;0.00;742.88;304.63;2052.22;3080.25;0
t;0.00;905.51;323.07;2088.71;3076.78;0
t;0.00;1038.77;313.95;2020.95;3009.36;0
t;0.00;1012.77;323.73;2048.07;3110.74;0
t;0.00;851.32;323.96;2084.45;3145.49;0
t;0.00;730.90;349.85;2091.01;3089.11;0
t;0.00;864.87;330.86;2072.28;3005.90;0
t;0.00;962.34;344.86;2008.27;3133.77;0
t;0.00;1009.63;315.40;2001.32;3046.24;0
t;0.00;1052.09;312.56;2085.88;3150.55;0
t;0.00;1045.02;336.97;2042.60;3114.72;0
t;0.00;1024.96;347.85;2058.53;3038.42;0
t;0.00;954.49;342.91;2019.57;3166.27;0
t;0.00;1084.02;328.23;2030.67;3092.48;0
t;0.00;712.49;331.96;2097.88;3092.20;0
t;0.00;718.87;324.50;2086.69;3191.84;0
t;0.00;928.49;313.10;2035.69;3023.18;0
t;0.00;808.04;319.58;2042.88;3181.06;0
t;0.00;959.04;306.60;2005.31;3157.63;0
t;0.00;939.56;346.00;2021.58;3118.98;0
t;0.00;1076.72;313.90;2036.02;3107.50;0
t;0.00;1009.58;302.33;2044.71;3048.44;0
t;0.00;833.62;342.29;2074.89;3043.81;0
t;0.00;719.35;310.45;2023.22;3077.76;0
t;0.00;995.66;328.27;2093.40;3117.73;0
t;0.00;1019.87;320.20;2062.71;3116.53;0
t;0.00;897.84;328.84;2057.98;3030.36;0
t;0.00;803.85;325.19;2017.52;3114.64;0
t;0.00;732.59;323.41;2024.81;3136.28;0
t;0.00;881.63;328.91;2093.02;3196.07;0
t;0.00;756.32;347.75;2060.81;3033.27;0
t;0.00;720.87;309.67;2034.68;3109.02;0
t;0.00;853.87;320.73;2088.37;3022.39;0
t;0.00;962.98;318.02;2099.68;3077.23;0
t;0.00;828.11;324.15;2060.13;3181.20;0
t;0.00;920.69;345.68;2017.08;3144.25;0
t;0.00;956.78;312.59;2006.15;3172.84;0
t;0.00;759.82;346.54;2063.68;3019.87;0
t;0.00;777.78;327.41;2057.41;3078.98;0
t;0.00;1038.75;333.05;2035.22;3129.65;0
t;0.00;899.19;334.69;2061.62;3070.40;0
t;0.00;1059.56;311.18;2053.13;3009.96;0
t;0.00;1091.42;306.83;2082.16;3024.40;0
t;0.00;769.87;321.00;2076.73;3052.87;0
t;0.00;1000.94;308.03;2057.04;3082.79;0
t;0.00;799.99;320.02;2036.96;3199.94;0
t;0.00;754.43;349.10;2093.76;3043.39;0
t;0.00;798.05;349.90;2042.57;3017.21;0
t;0.00;801.38;322.69;2040.66;3148.67;0
t;0.00;1062.59;323.22;2027.30;3084.54;0
t;0.00;737.47;323.79;2032.06;3181.07;0
t;0.00;706.24;315.42;2011.15;3156.08;0
t;0.00;937.36;315.88;2062.76;3077.14;0
t;0.00;815.83;343.38;2059.71;3188.06;0
t;0.00;977.07;307.94;2008.54;3124.14;0
t;0.00;960.83;323.95;2082.41;3100.43;0
t;0.00;968.69;304.19;2072.70;3056.86;0
t;0.00;998.28;323.50;2020.75;3023.70;0
t;0.00;1083.36;312.68;2001.05;3131.68;0
t;0.00;746.47;326.10;2033.68;3076.97;0
t;0.00;984.83;322.21;2078.13;3011.79;0
t;0.00;942.52;341.19;2011.68;3121.29;0
t;0.00;735.28;341.29;2035.28;3164.02;0
t;0.00;995.12;305.32;2051.57;3051.64;0
t;0.00;773.00;316.61;2097.67;3022.54;0
t;0.00;1029.59;301.63;2013.88;3156.53;0
t;0.00;1030.23;327.58;2084.11;3177.43;0
t;0.00;1042.45;313.23;2021.43;3106.40;0
t;0.00;1038.37;341.77;2017.14;3153.25;0
t;0.00;780.17;324.74;2052.22;3124.49;0
t;0.00;819.66;305.28;2052.56;3199.91;0
t;0.00;943.96;339.18;2081.49;3196.26;0
t;0.00;998.23;335.97;2017.49;3159.48;0
t;0.00;886.88;318.89;2057.86;3115.51;0
t;0.00;943.58;307.61;2010.14;3130.50;0
t;0.00;1038.23;300.68;2081.33;3011.04;0
t;0.00;1013.00;308.64;2063.20;3107.38;0
t;0.00;834.43;322.34;2021.95;3023.17;0
t;0.00;1016.97;313.24;2085.63;3072.17;0
t;0.00;1058.01;345.79;2025.98;3041.55;0
t;0.00;1084.94;339.71;2099.80;3090.14;0
t;0.00;807.36;338.43;2030.09;3158.25;0
t;0.00;941.78;330.06;2011.26;3082.39;0
t;0.00;818.62;311.40;2065.55;3089.01;0
t;0.00;1002.61;304.76;2006.32;3195.26;0
t;0.00;723.37;311.05;2037.32;3090.39;0
t;0.00;1022.56;316.29;2035.92;3022.99;0
t;0.00;1072.75;329.05;2084.35;3167.17;0
t;0.00;716.18;306.22;2025.81;3143.36;0
t;0.00;833.41;335.62;2011.76;3087.34;0
t;0.00;837.60;345.07;2071.04;3134.89;0
t;0.00;781.69;326.49;2010.15;3129.19;0
t;0.00;708.55;326.18;2068.45;3003.43;0
t;0.00;1084.58;329.96;2058.31;3083.84;0
t;0.00;725.87;349.44;2070.37;3025.74;0
t;0.00;1041.51;330.03;2060.15;3042.63;0
t;0.00;924.36;344.70;2054.98;3084.70;0
t;0.00;1040.15;309.09;2061.57;3065.69;0
t;0.00;740.23;333.12;2017.23;3119.77;0
t;0.00;903.38;314.37;2049.63;3168.17;0
t;0.00;908.76;343.15;2073.41;3134.87;0
t;0.00;792.83;303.91;2029.16;3094.00;0
t;0.00;719.26;324.77;2023.75;3107.16;0
t;0.00;977.96;309.92;2048.61;3039.76;0
t;0.00;996.34;323.76;2032.17;3039.07;0
t;0.00;996.27;303.25;2006.20;3079.17;0
t;0.00;1051.14;310.09;2066.07;3081.19;0
t;0.00;911.44;316.73;2091.61;3157.63;0
t;0.00;716.48;316.80;2054.15;3143.08;0
t;0.00;788.72;300.18;2090.38;3019.42;0
t;0.00;936.61;324.53;2053.99;3150.08;0
t;0.00;1016.92;322.23;2041.67;3092.91;0
t;0.00;813.59;319.27;2006.95;3124.54;0
t;0.00;907.60;313.15;2042.84;3184.82;0
