j;0.00
t;0.03;938718718146.03;9857458.79;100000000.20;9950513.42;0
t;0.01;949165658056.56;9946260.95;100000001.13;9961742.40;0
t;0.03;1056744233408.42;9988173.53;100000001.11;10122373.55;0
t;0.01;746142971558.04;10041259.32;100000000.54;10015068.77;0
t;0.00;843126657188.76;9881112.07;99999999.02;10016335.62;0
t;0.00;1000422512981.08;10147614.71;100000000.17;9925339.18;0
t;0.01;925324515754.54;9945637.00;99999998.90;9999706.29;0
t;0.00;1106008344986.87;9919833.80;99999999.61;10091038.98;0
t;0.00;973152450845.70;10085462.77;100000000.54;9878526.25;0
t;0.03;933564824867.94;9900517.77;99999998.20;9879658.39;0
t;0.01;927277049256.05;10021333.80;100000001.23;10135897.50;0
t;0.00;1118608048589.02;9856457.60;99999999.52;9943086.86;0
t;0.01;1178082382609.38;9974581.81;99999998.69;9948176.52;0
t;0.00;936436422767.99;10026764.79;99999999.51;9892837.63;0
t;0.01;1070781705620.51;9964731.20;100000000.17;10032199.68;0
t;0.01;1045580176863.40;10125048.01;99999999.20;10064848.02;0
t;0.01;892172961806.30;9995960.76;99999999.78;10076974.27;0
t;0.01;1142501295624.54;9889475.48;99999999.51;10057470.32;0
t;0.00;860894875528.27;9967354.98;100000000.41;10048069.77;0
t;0.01;976946400853.18;9935887.54;100000000.44;9937741.78;0
t;0.02;928902394014.90;9825025.95;99999999.81;10195183.93;0
t;0.02;1063172876381.32;10039493.38;100000000.34;9956431.28;0
t;0.00;1050595064653.17;10118157.75;99999999.72;10206122.54;0
t;0.00;1045935320327.36;10192244.05;100000001.20;9995448.55;0
t;0.01;1060450936605.26;10055160.40;100000000.56;9988176.82;0
t;0.00;1052292313642.00;10159492.10;100000000.34;10036943.34;0
t;0.01;1046824851835.64;10090191.75;100000001.80;9975469.63;0
t;0.00;1099213554883.44;9974345.53;99999998.83;9950541.62;0
t;0.03;1152809804528.24;10089929.03;100000000.74;10066859.40;0
t;0.01;1090473844371.09;9921326.41;99999998.91;10117451.76;0
t;0.00;959413013859.13;10131427.42;99999998.17;9969301.67;0
t;0.00;1065837129205.21;9981875.68;99999999.22;9963977.75;0
t;0.01;1215674821869.82;10033622.10;99999997.98;9928810.78;0
t;0.00;1160439589452.64;10074084.66;99999998.53;9913983.40;0
t;0.00;947989808367.10;10067319.83;100000000.31;9979959.89;0
t;0.00;1188172925467.94;9946823.54;100000001.19;9947592.29;0
t;0.01;824258473489.60;10143688.27;99999999.37;9921686.18;0
t;0.00;997916117361.43;10035381.73;100000001.15;9950610.84;0
t;0.01;1104839500846.53;9921032.15;100000000.66;9913245.93;0
t;0.00;852200716010.97;9875122.31;100000000.48;10034316.86;0
t;0.03;1256842853973.46;9920060.07;99999999.64;9911736.71;0
t;0.00;1017499444179.55;9994139.92;99999999.82;10157935.34;0
t;0.00;881695727431.27;9910906.25;99999999.30;10140907.00;0
t;0.01;955552027450.17;10138462.22;99999999.26;9961438.07;0
t;0.01;896554095046.36;9934742.54;100000000.62;9880649.60;0
t;0.03;760516391906.48;10048472.51;99999999.82;10143391.76;0
t;0.01;1120490820819.82;9862535.41;100000001.49;9836686.06;0
t;0.01;1031160783545.48;9841911.03;100000002.57;9895417.58;0
t;0.01;1182515459696.04;10067492.80;99999999.09;9945359.06;0
t;0.00;878388907911.65;9953703.85;99999998.90;10067713.14;0
t;0.00;944858996737.00;10109163.42;100000001.04;9832603.33;0
t;0.01;937476917865.43;9887929.19;99999999.63;10004679.05;0
t;0.00;906449016085.96;9943977.61;99999999.58;9817749.66;0
t;0.04;797261680197.20;9908981.16;100000000.34;9890324.63;0
t;0.00;943245954626.97;10097331.39;99999999.64;9848530.26;0
t;0.01;992723244156.90;10004464.01;99999999.82;10136226.17;0
t;0.02;1178159481986.63;9976477.03;99999999.52;9920905.84;0
t;0.01;1035966083952.35;9894748.88;99999998.98;9948795.75;0
t;0.01;942623264083.61;10016493.86;100000001.20;10112050.86;0
t;0.02;938666596902.04;9954219.37;100000000.37;9995073.71;0
t;0.00;973927999530.94;10010802.64;99999998.99;10064082.61;0
t;0.00;935122011145.11;9950808.47;99999999.18;9968141.78;0
t;0.00;986224389519.47;10198023.50;99999998.42;9951663.23;0
t;0.01;957521671772.51;10126697.48;100000000.08;10046493.79;0
t;0.00;950482157117.37;10031361.65;100000000.34;10126126.35;0
t;0.00;790183612672.65;10157294.29;100000000.08;9925132.89;0
t;0.00;1061594766222.68;10001160.34;100000000.31;10065079.45;0
t;0.01;1023227579276.37;10092822.27;100000000.28;9876313.77;0
t;0.01;1070701811125.09;10253749.64;100000000.27;10152482.62;0
t;0.01;943835687940.16;10030584.79;99999999.42;9971000.16;0
t;0.01;1025402199264.76;10002624.94;100000000.23;9766573.66;0
t;0.00;1008126216059.34;10022098.34;100000000.71;10052139.24;0
t;0.00;1015289045461.43;10000340.87;99999999.67;10140048.79;0
t;0.01;946744005836.52;10129842.26;99999998.51;10104703.91;0
t;0.03;873399240758.06;10026488.06;99999998.34;9971209.54;0
t;0.00;1063861954619.55;10167053.82;99999999.99;9958506.89;0
t;0.05;1052416455594.65;9877708.30;99999999.90;10065742.12;0
t;0.02;975491499908.63;9845556.39;100000001.21;10149794.70;0
t;0.00;891964555826.71;10083522.09;99999999.65;10041526.69;0
t;0.00;1101102155977.76;10053871.04;99999999.53;9852080.33;0
t;0.00;1055818767016.07;10081675.03;99999999.67;10182901.39;0
t;0.01;1140654595059.31;10041686.60;100000001.25;9894073.44;0
t;0.01;971551584131.06;10149787.87;100000001.37;10062429.35;0
t;0.00;983291018472.33;9948914.36;99999997.76;10131314.81;0
t;0.02;969476622558.64;9921897.21;99999999.99;10096878.53;0
t;0.02;1033832123375.05;10092373.42;99999999.43;10004059.27;0
t;0.01;943063983775.73;10102919.25;99999999.44;9841009.55;0
t;0.02;963200610857.22;10027403.66;99999999.24;10116856.27;0
t;0.00;1059862006519.35;10073039.92;99999998.79;9954634.38;0
t;0.02;961930060534.61;10033918.34;99999998.75;10036674.24;0
t;0.00;1069115227956.80;10097539.33;99999999.66;9894636.64;0
t;0.02;1062452732476.65;10013207.51;100000001.10;10073077.21;0
t;0.01;1024533360052.14;9948839.86;99999999.22;9814689.10;0
t;0.01;1005475280401.11;10098670.50;99999999.51;10135334.04;0
t;0.00;950976830929.00;9917010.42;100000001.57;10023167.73;0
t;0.01;976477180993.40;9887293.91;100000001.15;9767373.53;0
t;0.00;1060454955592.02;10028516.21;100000002.05;10024893.01;0
t;0.00;805693451245.70;10043123.21;100000001.20;10103887.92;0
t;0.00;1150434856542.91;10064726.58;100000001.04;10124900.34;0
t;0.00;1131001425754.48;9903723.68;100000000.02;10033173.29;0
t;0.06;1020124570533.91;10064419.42;100000000.15;10133137.52;0
t;0.01;1102977078504.53;9917773.03;100000000.82;10088616.97;0
t;0.01;1000655351983.17;9967044.14;100000000.99;10217396.68;0
t;0.01;1032735919720.62;9949951.82;100000000.62;9945529.66;0
t;0.00;847111171701.84;9852532.40;99999997.19;9986115.79;0
t;0.00;955160499154.22;10001507.75;99999999.99;10018428.96;0
t;0.00;891518806009.82;9959172.54;100000002.21;9918975.08;0
t;0.01;1062068175944.17;10027630.00;99999999.38;9953427.77;0
t;0.01;901264772766.08;9876597.86;99999999.83;10228228.65;0
t;0.01;916625655387.92;9938579.43;100000000.34;10008455.21;0
t;0.01;963337212724.48;10016240.37;99999999.56;9927899.80;0
t;0.01;893402793854.85;9816752.04;99999999.61;9958581.63;0
t;0.00;893862220420.48;10173530.17;100000000.18;9830038.22;0
t;0.02;1038680428193.32;10102788.55;99999999.41;9863398.64;0
t;0.01;978255482605.00;9865978.21;99999998.63;9928233.85;0
t;0.00;940921279951.55;9959266.56;100000000.02;10035773.27;0
t;0.00;1080187014190.57;10090551.38;100000000.76;10097066.08;0
t;0.01;843742577911.20;10106772.48;100000000.30;10042733.97;0
t;0.00;976215532590.82;10042022.93;100000000.29;9874389.13;0
t;0.02;882686672913.02;9850032.40;100000001.06;10061380.34;0
t;0.02;1062498871858.51;9943640.82;99999999.19;10142028.07;0
t;0.01;998456415916.51;10119266.69;99999998.16;9954234.63;0
t;0.01;1005753741280.18;9970861.98;100000001.67;9989916.93;0
t;0.00;1010907261844.02;10011156.05;99999999.14;10202444.57;0
t;0.01;923723166509.71;10056051.18;100000000.04;9982566.28;0
t;0.02;931333500108.99;9841248.09;99999999.05;9956812.05;0
t;0.01;1068564432309.09;9986005.64;99999999.45;9931494.63;0
t;0.00;838442773260.18;10021935.59;99999999.91;10025804.06;0
t;0.03;916488425507.68;9929917.19;99999999.03;9892972.41;0
t;0.00;1180645403007.30;10037713.14;100000000.34;10048457.90;0
t;0.01;943161673488.63;10127237.67;100000000.62;9910230.27;0
t;0.00;1055090315585.22;10065329.73;99999999.73;9890379.97;0
t;0.00;1062669861322.34;10018670.54;100000000.25;10072527.84;0
t;0.00;892648291264.06;9982822.69;99999998.73;10151236.68;0
t;0.00;1040850881071.58;10072939.33;99999998.91;10011300.88;0
t;0.00;958429339115.92;9945034.23;99999999.09;10174921.29;0
t;0.02;968366967845.99;9988724.60;100000000.60;10222277.47;0
t;0.01;933038502623.14;10017780.38;99999999.91;10088214.96;0
t;0.04;1118612985027.17;9966848.93;99999999.51;10128286.59;0
t;0.02;992734794202.79;10074521.39;99999998.69;10082899.15;0
t;0.03;1030877281269.40;10035884.68;100000002.18;9970623.89;0
t;0.01;1140878027776.20;10143075.15;100000000.89;9883602.70;0
t;0.01;1057084472301.23;10122924.10;100000000.63;9843307.81;0
t;0.02;1155988913344.93;10069942.23;99999998.85;9886972.15;0
t;0.00;1027861818768.03;10022835.07;100000000.55;10080090.31;0
t;0.00;1099501674274.22;10092051.35;100000000.18;9924255.19;0
t;0.01;1017425213430.98;10175569.41;99999999.02;9833642.41;0
t;0.00;1017345088575.23;9987525.64;99999999.22;9964736.55;0
t;0.00;979988192030.66;9841228.84;100000000.40;9832249.55;0
t;0.01;1150537547322.48;9937085.43;99999999.80;10126054.38;0
t;0.02;1021929220564.41;9990420.26;99999997.90;10063383.36;0
t;0.00;938860945831.08;9938141.33;99999999.97;9971792.55;0
t;0.00;1072125757126.36;9894830.22;100000000.61;9818544.10;0
t;0.01;1018682609602.21;10122088.01;100000001.51;9895160.35;0
t;0.01;939510208914.57;10242137.02;99999999.46;10029438.62;0
t;0.02;992862225948.37;10293264.59;100000000.28;10088366.53;0
t;0.01;1059225468755.50;9959920.36;100000001.58;9940642.83;0
t;0.01;915498128852.93;9929842.97;99999999.58;10125385.77;0
t;0.00;991051302715.01;9919324.05;100000000.60;9950509.47;0
t;0.00;1102563217224.56;10022326.97;100000001.19;10207732.97;0
t;0.00;1021631803394.43;10115676.66;99999999.48;10091890.36;0
t;0.00;893700532570.07;10182659.70;100000000.08;10029630.81;0
t;0.01;886224033585.37;9862807.80;99999997.93;10241846.94;0
t;0.02;1046499429033.25;10042569.33;99999998.31;9852072.13;0
t;0.01;893269446584.17;9812367.72;99999999.54;10210470.50;0
t;0.00;899036711788.96;9958486.00;99999999.62;9836582.46;0
t;0.01;795326818211.16;9984728.18;100000001.62;9868105.32;0
t;0.00;1017760220297.15;9814164.78;100000000.02;9988352.74;0
t;0.00;949797946298.60;10036758.93;99999998.65;9841037.63;0
t;0.03;974352398781.50;10172070.34;100000000.09;9989613.74;0
t;0.01;1303137771295.56;9987322.61;100000000.12;9778068.49;0
t;0.04;1027205917224.42;9974670.31;100000000.15;10149574.83;0
t;0.00;867121921988.03;10012278.37;99999998.74;10146869.23;0
t;0.00;957726444092.98;9796562.22;99999996.98;9918200.49;0
t;0.01;1147117309551.82;9837536.60;100000000.04;10104013.13;0
t;0.01;1225137667142.69;9864607.02;100000000.90;9857979.22;0
t;0.00;1027920171236.96;9914527.71;99999999.91;9917482.20;0
t;0.03;1007042991243.67;10046709.54;99999998.83;9820886.43;0
t;0.00;888455455885.44;9949497.43;99999999.90;10169495.53;0
t;0.00;1234194742335.30;9941628.18;100000001.45;9874967.91;0
t;0.00;858352292936.12;9806892.73;99999999.61;10010526.30;0
t;0.01;912080463449.43;10174542.04;100000001.09;10081145.35;0
t;0.01;1006762344246.20;10010550.48;99999999.96;9988858.41;0
t;0.02;997169808331.41;10024959.77;99999999.88;10091125.81;0
t;0.00;834209440921.75;10034085.55;99999997.16;10120605.89;0
t;0.01;1110244457400.45;10143333.49;99999998.60;9892057.82;0
t;0.01;1212808033393.43;10145087.28;99999999.58;9960009.34;0
t;0.01;1074392518564.52;9972663.65;99999999.80;9861086.32;0
t;0.00;1086252857030.70;9970483.16;100000000.60;9894509.96;0
t;0.02;921148728071.78;10263160.25;99999998.25;9924907.96;0
t;0.00;1064737587044.40;10022028.07;99999999.40;10081131.28;0
t;0.02;1274815597856.25;10216938.97;99999999.22;9939709.69;0
t;0.02;1121513823720.67;10041233.15;99999998.36;10080118.78;0
t;0.00;1042239398216.98;10057166.16;99999998.90;10119850.40;0
t;0.02;993704831813.97;9968439.04;99999999.81;10168916.71;0
t;0.02;1044851454886.22;9986641.76;100000000.12;10020000.21;0
t;0.06;1054043859416.23;10139468.18;99999999.23;10002630.45;0
t;0.03;1058400417145.65;9952042.93;100000000.86;10108721.31;0
t;0.00;1017979375198.84;9886606.40;100000000.02;9966165.38;0
t;0.00;1042443970547.91;10011793.07;99999999.26;9925309.25;0
t;0.00;891280275855.87;10027303.72;99999999.03;10116079.86;0
t;0.02;956267584902.35;9823341.38;100000000.54;9861909.80;0
t;0.01;828820978774.11;9939986.63;99999999.35;10074114.73;0
t;0.01;1119379837951.10;10098464.82;100000000.56;10104592.15;0
t;0.01;946370934570.52;9888423.16;99999999.49;9828148.53;0
t;0.01;1090679328759.56;10146217.90;99999999.54;10104187.58;0
t;0.02;1096141282672.26;9961986.67;99999997.30;10222423.84;0
t;0.00;1014271226793.27;9899945.26;99999999.24;10094480.69;0
t;0.00;1001921313692.84;9991110.13;99999998.50;10102358.94;0
t;0.02;1103963975157.86;9872842.91;99999998.55;9891082.22;0
t;0.02;989579769410.92;9991310.21;99999999.81;10083205.08;0
t;0.00;1166514523153.32;9960873.34;99999999.09;10060596.70;0
t;0.01;1300626441395.78;10075888.81;100000000.47;9757338.69;0
t;0.01;1072797447066.26;10008582.82;99999999.02;10121370.72;0
t;0.00;974153926706.26;9960342.21;100000001.30;9977345.58;0
t;0.02;894120264972.08;10065614.99;100000000.35;10309232.55;0
t;0.01;897610256901.96;10074288.73;100000000.74;9992025.57;0
t;0.00;997585229723.00;10088126.51;99999999.13;9967265.59;0
t;0.02;823527620210.62;9840569.89;99999999.57;9969327.66;0
t;0.01;923179685146.92;9991660.61;100000000.31;9923096.03;0
t;0.01;901650403473.08;10019410.31;100000000.95;10016647.56;0
t;0.00;918798555399.90;10102540.77;100000000.24;10051044.08;0
t;0.02;1044446708431.88;9860450.30;100000001.33;10079008.41;0
t;0.00;988880258837.39;10028051.14;99999999.89;10048461.89;0
t;0.01;933657703247.02;10088796.92;100000000.64;9860854.37;0
t;0.01;1035771983755.72;10013459.15;100000000.65;9955352.43;0
t;0.01;897694958397.33;9970989.22;99999999.09;9967130.03;0
t;0.00;915884859531.53;9868564.26;99999999.43;10016783.21;0
t;0.02;975765822890.65;10017917.90;99999998.22;10096130.19;0
t;0.00;943888438050.79;9931720.65;100000000.07;10098572.40;0
t;0.01;918928537134.73;10071117.06;100000000.19;9980146.40;0
t;0.00;851810659364.38;10094314.40;100000000.62;9900979.40;0
t;0.00;970126323266.99;10125724.11;99999999.65;10085728.03;0
t;0.03;936829674492.00;9916853.51;99999999.76;10202496.77;0
t;0.00;897085223109.33;9863082.07;99999999.96;10045522.05;0
t;0.00;1091035343623.68;9951082.90;99999998.30;9832034.57;0
t;0.01;1118402674679.24;9953844.01;100000001.18;9967573.55;0
t;0.00;1055273735786.37;9972324.69;99999998.97;10008571.32;0
t;0.01;1017571354721.24;10120206.12;99999999.87;9966298.38;0
t;0.01;969231055642.65;10046343.87;100000000.95;9924782.52;0
t;0.01;1089796477148.07;10122444.46;100000000.04;10006672.05;0
t;0.01;867457015704.15;10053028.10;99999998.86;10138588.59;0
t;0.01;1006497147939.73;10011959.41;99999999.16;10089756.30;0
t;0.01;880484200090.94;9965470.04;100000000.89;9970825.59;0
t;0.00;1087243869014.19;10189365.80;99999998.11;10103474.79;0
t;0.01;1151489691419.98;9971910.46;99999998.37;10029436.34;0
t;0.01;1048501997663.49;10095680.55;100000000.44;10098180.87;0
t;0.00;1057773528418.93;10020089.91;99999999.50;9970765.30;0
t;0.01;1082319322623.48;9931346.58;100000000.95;10158690.40;0
t;0.01;981626063749.02;10023776.80;99999999.45;9971644.49;0
t;0.01;1089470612841.41;10073950.89;100000000.72;9951181.70;0
t;0.00;981297125392.87;9865228.41;100000000.11;9985466.01;0
t;0.04;1147262137022.33;9965886.55;99999998.23;10052575.87;0
t;0.01;857352822480.08;10115147.03;99999997.54;10070946.73;0
t;0.00;1096540038231.90;9973344.85;99999999.47;9789351.04;0
t;0.02;984605566037.35;9900008.82;100000000.08;9994016.22;0
t;0.01;1047785964991.26;10004154.90;99999999.56;10031922.37;0
t;0.00;915062054985.77;9979919.34;100000000.47;9962650.76;0
t;0.01;985067077685.56;10057432.18;99999998.69;9927801.07;0
t;0.01;614964896671.81;10071361.98;100000000.15;9942671.59;0
t;0.00;891189682896.35;10004406.12;100000001.45;9977434.61;0
t;0.00;1125823823883.26;10016589.50;99999998.45;9829627.27;0
t;0.00;1046105388899.38;9903530.82;99999998.19;9870707.03;0
t;0.00;946291451274.93;10051243.13;99999998.69;9989871.21;0
t;0.00;1065290547639.88;10059741.88;99999999.71;9913386.08;0
t;0.01;1026981399846.69;10038951.49;99999999.69;10004471.46;0
t;0.00;1152216498593.59;9900813.36;100000001.57;9984408.18;0
t;0.00;829754674219.67;10031069.22;100000000.15;9865456.61;0
t;0.04;1099639869587.51;10007567.06;100000000.81;10005473.65;0
t;0.01;1108752645663.40;9980781.76;100000001.63;9949843.37;0
t;0.00;1039069415432.83;9850630.47;100000000.72;9938162.48;0
t;0.01;840968290672.17;10008170.21;100000000.01;10109687.72;0
t;0.03;980311007360.39;9938974.42;100000000.05;9953503.38;0
t;0.00;940607015566.91;9888076.00;99999998.32;9988995.64;0
t;0.00;1071381802640.40;10214183.94;99999999.93;10075067.17;0
t;0.00;832914418771.84;10066150.31;100000000.84;10019072.50;0
t;0.00;919934791244.63;10182955.63;100000000.44;9891584.08;0
t;0.01;828106903921.01;10061271.53;100000001.64;9979347.72;0
t;0.01;975574938898.24;10100659.38;100000001.26;9881051.14;0
t;0.00;1051162705747.98;9837052.29;100000000.18;10044824.66;0
t;0.00;898572447361.36;9989780.49;100000000.19;9982291.43;0
t;0.00;839852588538.20;9937486.74;100000000.61;10247657.61;0
t;0.01;1062139777462.54;9960404.61;99999999.85;9961483.45;0
t;0.00;1039510537257.39;9899289.63;99999997.89;10012050.13;0
t;0.00;957972650523.64;9845230.18;100000000.94;10070634.35;0
t;0.00;975544113431.25;9986907.12;100000001.18;9956896.60;0
t;0.00;951239348734.02;10164972.04;100000001.93;10000262.58;0
t;0.01;982824815248.40;10024237.93;99999998.97;10135067.17;0
t;0.01;852096957022.41;10000140.02;100000000.69;9945076.75;0
t;0.01;1358903201471.59;9967888.84;99999999.39;9887494.31;0
t;0.01;977984509468.18;10061023.35;100000002.46;9897631.00;0
t;0.02;1047672006368.14;10036371.88;99999999.48;10053055.90;0
t;0.03;1010414425066.11;10059717.58;99999999.15;9870622.74;0
t;0.00;889993207024.58;9953300.09;99999999.77;10021935.20;0
t;0.03;1184990854655.62;10124873.69;100000002.15;9964928.26;0
t;0.02;899429761899.35;9974762.66;99999999.66;9964754.07;0
t;0.03;943314149564.23;10103679.50;100000000.90;9903457.24;0
t;0.00;878099037287.05;10059980.91;99999998.48;9847180.68;0
t;0.02;945602810951.90;10017615.04;100000000.31;10004851.62;0
t;0.01;1058956232752.02;10036816.61;99999999.43;9952919.38;0
t;0.00;1150384351221.88;9870559.72;100000001.24;9919552.10;0
t;0.00;976375950580.14;10116101.58;100000000.19;9997919.70;0
t;0.01;886597876388.98;10194052.06;100000000.58;10025121.15;0
t;0.02;1085148102780.39;10137651.12;99999999.80;9941123.55;0
t;0.00;1058940851589.84;9904957.01;99999998.95;10066976.92;0
t;0.03;1082628994559.13;10228995.27;99999999.72;9956181.94;0
t;0.00;883389466448.20;9911817.60;100000000.62;9977604.38;0
t;0.01;1007595959536.38;10178127.31;100000000.42;10035630.13;0
t;0.00;1099330935446.25;9990890.20;100000000.32;10062301.93;0
t;0.04;1022248111530.31;10106805.76;99999999.72;9984911.69;0
t;0.04;1083226698938.45;10123979.70;99999999.27;10026347.85;0
t;0.01;886501260953.49;10002103.67;100000000.27;10136992.15;0
t;0.04;1055660114649.16;10054610.70;100000001.64;9778086.70;0
t;0.02;1182658332913.76;10038750.33;100000000.04;10017860.36;0
t;0.00;1167975018158.02;10042225.26;100000000.31;9996795.69;0
t;0.01;1175794353601.92;10322358.30;100000001.37;10123279.38;0
t;0.01;1049272793966.09;10079540.17;100000000.13;10070737.21;0
t;0.01;942914122898.40;10005287.05;100000000.00;10126124.09;0
t;0.00;992676664853.62;10040951.37;99999999.83;10110289.07;0
t;0.02;852134171399.68;9970833.52;99999998.30;10032345.44;0
t;0.01;902927572541.16;10037963.69;99999999.31;10106749.93;0
t;0.01;1116915351138.21;10046365.73;99999999.78;9950266.75;0
t;0.01;1000443014891.80;9958101.79;100000001.09;9994741.78;0
t;0.00;903603086665.05;9920654.83;100000000.45;9998170.74;0
t;0.00;989223557859.10;10049906.93;100000001.46;10139098.77;0
t;0.05;1107600221178.09;10090399.61;99999999.39;9814397.05;0
t;0.01;1073639879271.12;9947290.13;100000000.50;10162642.07;0
t;0.03;947240393133.97;9991801.06;99999999.66;10106383.94;0
t;0.00;1284166702062.29;10005274.05;100000000.37;10002696.27;0
t;0.00;1086407727160.33;9999286.91;100000000.81;9900771.12;0
t;0.02;1043134556075.92;10016396.81;100000001.40;9987251.16;0
t;0.01;942666377915.48;10188447.48;100000000.77;9940286.25;0
t;0.01;953543127661.90;9933962.77;99999998.76;10071902.12;0
t;0.02;862368979654.83;9904086.64;99999998.35;10206306.43;0
t;0.02;920596679195.01;9973252.16;99999998.51;10093327.47;0
t;0.00;993266114320.08;10064858.82;99999999.43;9946679.39;0
t;0.04;930955342751.55;10137471.92;99999997.02;10020731.64;0
t;0.02;1055153947204.42;9886826.10;100000000.10;9900621.08;0
t;0.00;980868355552.08;10146050.36;100000001.11;9944567.48;0
t;0.01;874285920675.75;10096247.95;99999998.93;9990568.86;0
t;0.02;1096249287663.26;10104049.65;100000000.56;9951006.04;0
t;0.00;1070352526025.70;10133764.86;100000001.39;9996941.89;0
t;0.00;913220189769.56;9925507.39;100000000.38;9949387.29;0
t;0.02;895976221097.80;10030602.94;100000000.75;10011527.86;0
t;0.01;1003945493321.78;9964470.55;99999999.72;10028978.14;0
t;0.00;1093271484107.47;10016845.13;99999999.26;10054603.34;0
t;0.00;843857051676.48;10014125.81;99999999.81;9990455.82;0
t;0.01;752031274022.92;9984709.81;100000000.29;9801811.92;0
t;0.01;1242655149922.92;9998435.25;99999999.40;9905291.80;0
t;0.01;1006936456118.71;9906154.67;100000000.56;10031090.49;0
t;0.01;1013367533706.69;10189148.40;100000000.67;9981169.70;0
t;0.00;948274721230.00;10124052.62;99999999.56;9994826.22;0
t;0.00;1049316101485.88;9762318.48;99999999.87;10121603.68;0
t;0.00;1056251765903.94;9856844.26;100000000.27;9934679.98;0
t;0.02;1065517047751.65;10020787.71;100000001.05;9955128.10;0
t;0.02;832070861485.02;9897949.15;100000001.80;10059230.81;0
t;0.03;981849989490.56;10014253.46;99999999.78;10037005.07;0
t;0.02;1083568263527.36;10058088.23;100000001.11;9869538.60;0
t;0.00;883972064741.76;9866087.16;100000000.07;9933769.64;0
t;0.03;1051829197192.65;9899225.80;100000001.50;9893187.28;0
t;0.02;930183440208.16;10129614.72;100000000.16;9947785.39;0
t;0.02;1040198025239.23;9967672.15;99999999.87;9971707.76;0
t;0.04;928180006852.17;9795574.02;100000001.56;9881698.60;0
t;0.00;900553348702.26;10051309.13;100000001.96;9952931.70;0
t;0.01;1077438270420.71;9813427.91;100000001.02;10081280.21;0
t;0.00;1051810996755.59;9956192.31;100000001.89;10015931.01;0
t;0.02;965625487262.66;9971039.54;99999999.14;9949843.95;0
t;0.00;949776705806.89;9906176.15;100000000.05;9890801.53;0
t;0.01;1033912699151.25;9978220.98;100000000.15;10021898.82;0
t;0.00;825425746730.70;10181232.89;99999999.58;9914682.98;0
t;0.00;967660531487.15;9830418.33;99999999.66;10014302.04;0
t;0.02;873192538915.25;10101530.65;100000000.12;9876366.76;0
t;0.02;1060092417306.31;10119045.96;100000000.49;10038051.71;0
t;0.02;1017134649448.78;10281257.53;99999998.42;9917761.86;0
t;0.02;838164688962.25;10206443.12;100000000.01;10045384.10;0
t;0.02;1037865928598.81;9906317.26;100000000.59;10026811.76;0
t;0.02;1147080717559.64;10183051.14;100000000.95;9896818.78;0
t;0.01;946489442276.22;10060698.93;99999999.12;9995890.33;0
t;0.03;942506408205.52;9951872.71;99999999.34;9977507.85;0
t;0.01;1038605764567.27;9988767.70;100000003.14;9889422.68;0
t;0.03;956534430379.74;10240482.79;99999999.24;9972462.71;0
t;0.00;873450825111.28;9816212.78;99999998.24;9941524.52;0
t;0.01;1080696249813.30;10031769.52;100000000.06;10050031.19;0
t;0.01;1045908616975.40;9896874.49;100000000.53;10063449.66;0
t;0.00;991394189382.90;10124995.05;100000002.59;10004396.41;0
t;0.02;1017620227524.92;10026362.51;100000000.24;9935494.29;0
t;0.01;1094043798256.31;9871828.34;100000000.17;9915547.37;0
t;0.01;1059067937010.42;10136281.49;99999999.29;9992243.33;0
t;0.00;913192839535.01;10045537.37;99999998.76;9978177.16;0
t;0.01;1030436340646.37;9984312.23;99999999.46;10016217.10;0
t;0.01;1019046398118.20;9947311.26;100000000.05;10275403.98;0
t;0.01;1154245738007.10;9929508.48;99999999.65;10049504.26;0
t;0.00;928458293729.38;9830992.90;99999998.76;10094790.70;0
t;0.01;824492527652.81;10126269.81;100000000.12;10041888.13;0
t;0.00;1026607228110.83;10048430.84;100000000.74;10136306.09;0
t;0.00;827823517597.32;10097820.91;100000001.75;10005846.66;0
t;0.00;964950042871.20;10067783.73;99999999.72;9811185.42;0
t;0.01;990385631507.82;10006501.49;99999999.95;9915199.09;0
t;0.00;1068149484149.36;10035181.95;99999999.71;10065370.68;0
t;0.00;1051773091932.37;9862587.20;100000000.51;10232214.43;0
t;0.01;1013353516323.29;9944583.37;99999998.89;9838236.14;0
t;0.01;955774880135.60;9971145.96;100000001.34;10008672.93;0
t;0.02;917041920509.91;10070074.92;100000000.49;10166872.16;0
t;0.02;862693948862.47;9924340.07;100000002.30;9925149.82;0
t;0.02;944137505556.08;9982929.05;99999999.52;10055459.27;0
t;0.01;1154897200983.39;9863076.86;99999999.61;9956074.62;0
t;0.01;1057799606574.49;9978966.84;100000000.56;9993819.35;0
t;0.03;908627596578.10;9831269.86;99999999.80;9991407.20;0
t;0.01;1033907674022.55;9941592.19;100000000.50;9931446.69;0
t;0.01;1020501576570.47;9822068.19;99999998.19;10014976.61;0
t;0.01;879489766914.71;9961755.36;99999999.47;10121583.74;0
t;0.00;1004102123923.98;9944585.76;99999999.86;9806348.99;0
