j;0.0
t;0.00;98952323654.31;108949.43;0.00;99033.88;4
t;0.00;99802812972.15;110094.46;0.00;110290.69;0
t;0.00;99900466964.83;99340.09;0.00;91673.59;5
t;0.00;100715514139.25;100179.25;0.00;102078.67;7
t;0.00;101362687001.13;103072.03;0.00;112858.08;4
t;0.00;99476651610.50;99491.35;0.00;103444.52;5
t;0.00;100687003889.21;112304.61;0.00;101936.95;6
t;0.00;99465987968.28;111770.76;0.00;71979.55;4
t;0.00;100830963060.57;89228.25;0.00;87108.13;2
t;0.00;100859418331.02;98681.30;0.00;98753.44;7
t;0.00;100426609041.05;92458.85;0.00;94699.47;4
t;0.00;100060005585.78;123098.14;0.00;99627.50;4
t;0.00;101045606806.28;111768.27;0.00;114212.59;5
t;0.00;99896159904.34;108091.26;0.00;101099.39;1
t;0.00;100957871331.70;99042.47;0.00;90854.14;0
t;0.00;99984467760.48;108044.99;0.00;89390.52;6
t;0.00;100455479157.47;91576.29;0.00;95386.25;8
t;0.00;100273120554.82;83851.09;0.00;94424.69;5
t;0.00;101539167263.05;107184.25;0.00;104496.91;8
t;0.00;99311237482.70;97567.86;0.00;105120.16;2
t;0.00;98819105463.82;109317.20;0.00;101244.23;1
t;0.00;100256913893.24;108739.32;0.00;106534.09;4
t;0.00;100795909534.75;103864.52;0.00;99193.98;1
t;0.00;100688915605.92;119251.12;0.00;110438.52;5
t;0.00;99515928121.25;77303.13;0.00;93645.87;6
t;0.00;98314547108.99;93250.05;0.00;94710.42;8
t;0.00;100428414488.63;101199.99;0.00;114538.24;2
t;0.00;100640780326.39;93501.51;0.00;106542.71;0
t;0.00;99215300599.31;89999.30;0.00;90736.98;7
t;0.00;99410712346.87;96972.52;0.00;121668.24;1
t;0.00;100277040152.23;101355.74;0.00;100354.89;5
t;0.00;100660076931.37;111467.84;0.00;115980.83;5
t;0.00;99583558566.75;116219.07;0.00;99383.47;1
t;0.00;99569373091.71;97790.73;0.00;103581.86;3
t;0.00;98058959699.41;95190.05;0.00;92878.89;2
t;0.00;101345033455.03;100562.72;0.00;104147.52;6
t;0.00;98359134991.04;94591.59;0.00;117298.77;3
t;0.00;98207199487.31;97996.80;0.00;88649.27;6
t;0.00;98328988546.37;111748.68;0.00;114599.63;6
t;0.00;101308592298.85;84735.46;0.00;105682.74;0
t;0.00;98949878824.14;123574.14;0.00;122120.53;3
t;0.00;99605874023.64;82977.70;0.00;100447.47;5
t;0.00;99029181255.40;100247.13;0.00;99878.84;3
t;0.00;99476758219.76;118220.02;0.00;89846.72;4
t;0.00;100458359530.12;108739.17;0.00;95974.09;0
t;0.00;99506357484.96;80249.54;0.00;94581.75;7
t;0.00;101031855239.39;99822.37;0.00;96922.38;4
t;0.00;99032718838.35;109511.21;0.00;90692.16;4
t;0.00;99272924338.79;100238.19;0.00;101242.31;0
t;0.00;99305915627.69;117781.14;0.00;93565.14;5
t;0.00;99343994975.47;119766.40;0.00;103679.01;4
t;0.00;99423576411.47;112768.98;0.00;104677.61;7
t;0.00;99579801635.23;99168.23;0.00;84184.68;2
t;0.00;99902936580.62;95559.53;0.00;92191.16;8
t;0.00;100789413249.97;99221.92;0.00;110308.25;4
t;0.00;99006048991.38;93559.94;0.00;91721.23;7
t;0.00;100311249496.81;103918.17;0.00;90321.86;1
t;0.00;97674333006.97;115501.14;0.00;98587.94;3
t;0.00;100252372218.33;106338.29;0.00;80020.84;8
t;0.00;99639767859.09;101000.47;0.00;105903.03;8
t;0.00;100709503037.97;99847.60;0.00;107405.92;4
t;0.00;101544281722.33;97651.17;0.00;86365.85;6
t;0.00;101285582162.30;96312.13;0.00;103540.31;3
t;0.00;98238511645.65;94276.07;0.00;105566.98;7
t;0.00;99778851286.80;97997.40;0.00;106239.25;1
t;0.00;100257086402.09;111011.30;0.00;102914.87;4
t;0.00;101072655893.43;110269.72;0.00;93477.03;7
t;0.00;99426339097.44;96815.78;0.00;109730.90;5
t;0.00;101334627096.21;101951.23;0.00;98918.25;7
t;0.00;99712681463.13;100991.46;0.00;124127.87;4
t;0.00;98942675797.48;93616.21;0.00;103197.45;2
t;0.00;100148908544.14;103228.94;0.00;102078.44;4
t;0.00;99199821388.67;87235.71;0.00;84271.49;8
t;0.00;101639281963.71;96194.22;0.00;94301.87;2
t;0.00;98047936321.90;109651.55;0.00;91016.16;8
t;0.00;100170255216.82;90906.51;0.00;110061.86;3
t;0.00;99544066224.11;103635.97;0.00;95993.83;3
t;0.00;101017946456.46;110573.85;0.00;107966.17;4
t;0.00;99945314751.16;105851.71;0.00;105322.27;3
t;0.00;97822970684.04;97048.09;0.00;85733.84;2
t;0.00;100341606854.18;90090.93;0.00;127860.85;7
t;0.00;97984583675.22;113624.47;0.00;98308.73;2
t;0.00;100117472197.73;88079.96;0.00;103728.04;2
t;0.00;100736006756.13;93287.73;0.00;101301.94;6
t;0.00;101152589847.05;99413.63;0.00;106995.70;4
t;0.00;98901391917.80;109552.18;0.00;110138.72;0
t;0.00;98571298204.80;96962.90;0.00;107608.45;4
t;0.00;98852449752.39;91656.00;0.00;103695.18;1
t;0.00;99534160981.34;110691.08;0.00;112199.43;1
t;0.00;98774041248.73;91254.47;0.00;90195.51;7
t;0.00;101049644747.98;99788.63;0.00;82370.33;8
t;0.00;99449090248.41;112268.34;0.00;112859.06;8
t;0.00;99989601426.10;99731.19;0.00;94416.26;0
t;0.00;100748522316.89;114946.38;0.00;91490.73;2
t;0.00;99684444871.02;117611.99;0.00;99834.25;3
t;0.00;98280175419.39;83823.79;0.00;102243.26;3
t;0.00;98893624264.22;98895.68;0.00;102371.40;0
t;0.00;101085309970.05;104055.95;0.00;97857.11;6
t;0.00;99766961861.81;103474.85;0.00;108144.42;6
t;0.00;101191338140.59;94077.51;0.00;93492.59;8
t;0.00;100730359405.88;98590.76;0.00;83794.63;8
t;0.00;100829417580.65;115371.85;0.00;96195.12;8
t;0.00;100966670519.64;91804.67;0.00;88496.53;7
t;0.00;97300113234.87;86898.80;0.00;101825.83;5
t;0.00;101509773684.73;100511.01;0.00;109192.77;7
t;0.00;101017200414.19;101479.79;0.00;109547.54;3
t;0.00;100051120714.51;100859.10;0.00;79698.31;5
t;0.00;100319005563.25;112944.82;0.00;115134.31;4
t;0.00;100090169095.10;102275.04;0.00;92106.37;3
t;0.00;98672469503.17;89054.99;0.00;113348.77;5
t;0.00;99031464210.39;82527.29;0.00;92896.22;3
t;0.00;100602801521.97;114978.17;0.00;99113.20;6
t;0.00;99681138342.76;101571.66;0.00;90615.78;1
t;0.00;99668534575.61;118357.48;0.00;97040.70;6
t;0.00;100581202395.32;101398.61;0.00;93071.55;1
t;0.00;99336808906.17;84747.71;0.00;84101.08;2
t;0.00;100589223124.93;97189.64;0.00;83485.79;0
t;0.00;100724362767.20;98420.16;0.00;117856.13;0
t;0.00;100596064743.30;86662.91;0.00;95987.55;5
t;0.00;102093281143.92;93159.40;0.00;108520.45;8
t;0.00;100120827700.50;112678.45;0.00;115794.50;6
t;0.00;100986286057.77;108184.79;0.00;91806.58;6
t;0.00;98106625347.90;105003.15;0.00;94252.21;7
t;0.00;99616702443.00;102549.08;0.00;98742.64;2
t;0.00;98209734851.43;96430.74;0.00;83730.94;5
t;0.00;98199656338.82;121288.02;0.00;83475.87;7
t;0.00;99923102820.74;103822.65;0.00;101829.15;2
t;0.00;99801971076.45;96863.35;0.00;94064.04;4
t;0.00;98272688069.66;89625.93;0.00;97532.35;4
t;0.00;100367142593.20;115694.89;0.00;99617.84;3
t;0.00;100120942588.89;117472.61;0.00;99157.92;3
t;0.00;99093948496.70;111998.19;0.00;109717.70;0
t;0.00;99680675781.08;108654.94;0.00;107468.37;0
t;0.00;98679553343.29;94538.31;0.00;112809.46;6
t;0.00;99854556125.30;85450.69;0.00;103278.34;0
t;0.00;98972246726.77;116317.25;0.00;104150.36;6
t;0.00;97797930326.10;119026.36;0.00;95611.49;2
t;0.00;100505870430.77;115382.51;0.00;96084.28;6
t;0.00;99114294970.72;113201.07;0.00;112288.42;2
t;0.00;98957129221.18;103407.99;0.00;97337.52;2
t;0.00;100325618008.45;107453.31;0.00;85294.76;0
t;0.00;99762223124.65;114342.63;0.00;92934.99;1
t;0.00;99883598470.67;90290.50;0.00;92228.65;6
t;0.00;100982034717.67;102112.56;0.00;112108.69;0
t;0.00;100136065257.85;113598.69;0.00;117142.32;7
t;0.00;101733062701.00;109386.42;0.00;99107.33;4
t;0.00;99547952218.02;104499.59;0.00;105110.63;1
t;0.00;97044637295.72;119615.38;0.00;88656.11;2
t;0.00;99055947752.35;100915.45;0.00;87429.83;3
t;0.00;100125626867.16;99222.74;0.00;89433.74;3
t;0.00;99335728022.96;92488.79;0.00;100430.61;8
t;0.00;97790463968.24;101383.48;0.00;81386.23;3
t;0.00;99684738664.93;85072.35;0.00;100415.86;0
t;0.00;102280339960.55;106791.50;0.00;90556.20;5
t;0.00;100335407521.09;101629.55;0.00;103382.89;1
t;0.00;100275560742.97;113164.82;0.00;91032.56;6
t;0.00;99945307191.05;92096.58;0.00;96505.77;1
t;0.00;98735216342.70;85662.08;0.00;108534.60;3
t;0.00;99988970888.60;95166.47;0.00;99713.69;3
t;0.00;100677899250.71;100984.48;0.00;114622.31;3
t;0.00;98930280176.92;104878.80;0.00;83313.46;3
t;0.00;99113834698.16;95224.90;0.00;85428.08;7
t;0.00;99753118915.46;111997.98;0.00;102304.56;1
t;0.00;99899749791.72;81080.74;0.00;90060.72;8
t;0.00;99656882217.03;101396.46;0.00;92383.98;7
t;0.00;98472934111.40;115586.89;0.00;87583.32;7
t;0.00;100462115138.91;88359.42;0.00;95516.21;4
t;0.00;97335077244.82;101092.54;0.00;119255.87;6
t;0.00;99762160609.93;115063.37;0.00;90838.99;0
t;0.00;98969519663.36;105147.93;0.00;88926.95;2
t;0.00;98332525633.56;77185.70;0.00;100231.55;4
t;0.00;98908346111.05;96575.96;0.00;116458.29;2
t;0.00;99746775261.95;95892.95;0.00;93282.17;3
t;0.00;100171626948.68;95671.36;0.00;99990.26;1
t;0.00;100950616426.24;89841.98;0.00;101954.61;1
t;0.00;100122593301.29;96900.03;0.00;77051.80;2
t;0.00;101085267776.23;103511.91;0.00;109025.26;1
t;0.00;99041141650.51;96595.43;0.00;118292.33;7
t;0.00;99457124873.15;80762.07;0.00;111386.77;0
t;0.00;98553151356.04;101396.50;0.00;101338.24;3
t;0.00;99663861144.20;108181.50;0.00;83664.77;5
t;0.00;101040112457.23;85533.17;0.00;104462.28;7
t;0.00;99703632626.33;109009.12;0.00;96086.88;7
t;0.00;99304427318.23;103557.39;0.00;101313.15;8
t;0.00;101866602282.42;94842.19;0.00;95385.38;3
t;0.00;101460625346.80;103277.04;0.00;106679.39;8
t;0.00;99360886433.19;88400.19;0.00;88185.78;3
t;0.00;99204768125.12;114537.51;0.00;99564.03;5
t;0.00;100835734478.97;99083.22;0.00;116999.96;1
t;0.00;101654263994.34;82944.67;0.00;107874.13;8
t;0.00;100267074219.88;89896.15;0.00;100742.03;8
t;0.00;100393060923.88;91174.19;0.00;84516.48;7
t;0.00;100140523439.48;104504.87;0.00;111515.51;8
t;0.00;99561974354.14;96199.97;0.00;96902.10;7
t;0.00;97872611234.77;105559.45;0.00;95065.96;0
t;0.00;99492978579.79;109407.21;0.00;94937.50;1
t;0.00;99769122994.63;105080.91;0.00;98843.89;5
t;0.00;99862152095.99;103069.41;0.00;103468.17;1
t;0.00;99903782950.26;111835.54;0.00;94195.78;2
t;0.00;100423732881.77;116993.34;0.00;99017.28;8
